2019-08-14 09:25:08 - summarizer.preprocessing.cleaner - INFO - textcleaner : 37 - 'pattern' package not found; tag filters are not available for English
2019-08-14 09:25:08 - __main__ - INFO - app : 46 - number of epochs =  1
2019-08-14 09:25:08 - tensorflow - WARNING - deprecation_wrapper : 119 - From app/app.py:147: The name tf.Session is deprecated. Please use tf.compat.v1.Session instead.

2019-08-14 09:25:11 - root - INFO - app : 152 - Reading training data
2019-08-14 09:25:11 - root - INFO - app : 154 - Reading validation data
2019-08-14 09:25:11 - root - INFO - app : 156 - Creating model
2019-08-14 09:25:12 - tensorflow - WARNING - deprecation_wrapper : 119 - From /home/xprops/irrs_sc/train/app/autoencoder.py:42: The name tf.placeholder is deprecated. Please use tf.compat.v1.placeholder instead.

2019-08-14 09:25:12 - tensorflow - WARNING - deprecation_wrapper : 119 - From /home/xprops/irrs_sc/train/app/autoencoder.py:67: The name tf.variable_scope is deprecated. Please use tf.compat.v1.variable_scope instead.

2019-08-14 09:25:12 - tensorflow - WARNING - deprecation : 506 - From /home/xprops/irrs/lib/python3.7/site-packages/tensorflow/python/ops/init_ops.py:1288: calling VarianceScaling.__init__ (from tensorflow.python.ops.init_ops) with dtype is deprecated and will be removed in a future version.
Instructions for updating:
Call initializer instance with the dtype argument instead of passing it to the constructor
2019-08-14 09:25:12 - tensorflow - WARNING - deprecation : 323 - From /home/xprops/irrs_sc/train/app/autoencoder.py:73: LSTMCell.__init__ (from tensorflow.python.ops.rnn_cell_impl) is deprecated and will be removed in a future version.
Instructions for updating:
This class is equivalent as tf.keras.layers.LSTMCell, and will be replaced by that in Tensorflow 2.0.
2019-08-14 09:25:12 - tensorflow - WARNING - deprecation : 506 - From /home/xprops/irrs_sc/train/app/autoencoder.py:78: calling dropout (from tensorflow.python.ops.nn_ops) with keep_prob is deprecated and will be removed in a future version.
Instructions for updating:
Please use `rate` instead of `keep_prob`. Rate should be set to `rate = 1 - keep_prob`.
2019-08-14 09:25:12 - tensorflow - WARNING - deprecation : 323 - From /home/xprops/irrs_sc/train/app/autoencoder.py:86: bidirectional_dynamic_rnn (from tensorflow.python.ops.rnn) is deprecated and will be removed in a future version.
Instructions for updating:
Please use `keras.layers.Bidirectional(keras.layers.RNN(cell))`, which is equivalent to this API
2019-08-14 09:25:12 - tensorflow - WARNING - deprecation : 323 - From /home/xprops/irrs/lib/python3.7/site-packages/tensorflow/python/ops/rnn.py:464: dynamic_rnn (from tensorflow.python.ops.rnn) is deprecated and will be removed in a future version.
Instructions for updating:
Please use `keras.layers.RNN(cell)`, which is equivalent to this API
2019-08-14 09:25:12 - tensorflow - WARNING - deprecation : 506 - From /home/xprops/irrs/lib/python3.7/site-packages/tensorflow/python/ops/rnn_cell_impl.py:961: calling Zeros.__init__ (from tensorflow.python.ops.init_ops) with dtype is deprecated and will be removed in a future version.
Instructions for updating:
Call initializer instance with the dtype argument instead of passing it to the constructor
2019-08-14 09:25:13 - tensorflow - WARNING - deprecation : 323 - From /home/xprops/irrs/lib/python3.7/site-packages/tensorflow/python/ops/rnn.py:244: add_dispatch_support.<locals>.wrapper (from tensorflow.python.ops.array_ops) is deprecated and will be removed in a future version.
Instructions for updating:
Use tf.where in 2.0, which has the same broadcast rule as np.where
2019-08-14 09:25:14 - tensorflow - WARNING - deprecation : 323 - From /home/xprops/irrs_sc/train/app/autoencoder.py:137: dense (from tensorflow.python.layers.core) is deprecated and will be removed in a future version.
Instructions for updating:
Use keras.layers.dense instead.
2019-08-14 09:25:14 - tensorflow - WARNING - deprecation_wrapper : 119 - From /home/xprops/irrs_sc/train/app/autoencoder.py:142: The name tf.nn.rnn_cell.LSTMStateTuple is deprecated. Please use tf.compat.v1.nn.rnn_cell.LSTMStateTuple instead.

2019-08-14 09:25:14 - tensorflow - WARNING - deprecation_wrapper : 119 - From /home/xprops/irrs_sc/train/app/autoencoder.py:174: The name tf.get_collection is deprecated. Please use tf.compat.v1.get_collection instead.

2019-08-14 09:25:14 - tensorflow - WARNING - deprecation_wrapper : 119 - From /home/xprops/irrs_sc/train/app/autoencoder.py:174: The name tf.GraphKeys is deprecated. Please use tf.compat.v1.GraphKeys instead.

2019-08-14 09:25:14 - tensorflow - WARNING - deprecation_wrapper : 119 - From /home/xprops/irrs_sc/train/app/autoencoder.py:200: The name tf.train.AdamOptimizer is deprecated. Please use tf.compat.v1.train.AdamOptimizer instead.

2019-08-14 09:25:18 - root - INFO - app : 166 - Initialized the model and all variables. Starting training.
2019-08-14 09:25:18 - tensorflow - WARNING - deprecation_wrapper : 119 - From /home/xprops/irrs_sc/train/app/autoencoder.py:230: The name tf.train.Saver is deprecated. Please use tf.compat.v1.train.Saver instead.

2019-08-14 09:27:03 - summarizer.preprocessing.cleaner - INFO - textcleaner : 37 - 'pattern' package not found; tag filters are not available for English
2019-08-14 09:27:03 - __main__ - INFO - app : 46 - number of epochs =  1
2019-08-14 09:27:03 - tensorflow - WARNING - deprecation_wrapper : 119 - From app/app.py:147: The name tf.Session is deprecated. Please use tf.compat.v1.Session instead.

2019-08-14 09:27:03 - root - INFO - app : 152 - Reading training data
2019-08-14 09:27:03 - root - INFO - app : 154 - Reading validation data
2019-08-14 09:27:03 - root - INFO - app : 156 - Creating model
2019-08-14 09:27:03 - tensorflow - WARNING - deprecation_wrapper : 119 - From /home/xprops/irrs_sc/train/app/autoencoder.py:42: The name tf.placeholder is deprecated. Please use tf.compat.v1.placeholder instead.

2019-08-14 09:27:03 - tensorflow - WARNING - deprecation_wrapper : 119 - From /home/xprops/irrs_sc/train/app/autoencoder.py:67: The name tf.variable_scope is deprecated. Please use tf.compat.v1.variable_scope instead.

2019-08-14 09:27:03 - tensorflow - WARNING - deprecation : 506 - From /home/xprops/irrs/lib/python3.7/site-packages/tensorflow/python/ops/init_ops.py:1288: calling VarianceScaling.__init__ (from tensorflow.python.ops.init_ops) with dtype is deprecated and will be removed in a future version.
Instructions for updating:
Call initializer instance with the dtype argument instead of passing it to the constructor
2019-08-14 09:27:03 - tensorflow - WARNING - deprecation : 323 - From /home/xprops/irrs_sc/train/app/autoencoder.py:73: LSTMCell.__init__ (from tensorflow.python.ops.rnn_cell_impl) is deprecated and will be removed in a future version.
Instructions for updating:
This class is equivalent as tf.keras.layers.LSTMCell, and will be replaced by that in Tensorflow 2.0.
2019-08-14 09:27:03 - tensorflow - WARNING - deprecation : 506 - From /home/xprops/irrs_sc/train/app/autoencoder.py:78: calling dropout (from tensorflow.python.ops.nn_ops) with keep_prob is deprecated and will be removed in a future version.
Instructions for updating:
Please use `rate` instead of `keep_prob`. Rate should be set to `rate = 1 - keep_prob`.
2019-08-14 09:27:03 - tensorflow - WARNING - deprecation : 323 - From /home/xprops/irrs_sc/train/app/autoencoder.py:86: bidirectional_dynamic_rnn (from tensorflow.python.ops.rnn) is deprecated and will be removed in a future version.
Instructions for updating:
Please use `keras.layers.Bidirectional(keras.layers.RNN(cell))`, which is equivalent to this API
2019-08-14 09:27:03 - tensorflow - WARNING - deprecation : 323 - From /home/xprops/irrs/lib/python3.7/site-packages/tensorflow/python/ops/rnn.py:464: dynamic_rnn (from tensorflow.python.ops.rnn) is deprecated and will be removed in a future version.
Instructions for updating:
Please use `keras.layers.RNN(cell)`, which is equivalent to this API
2019-08-14 09:27:03 - tensorflow - WARNING - deprecation : 506 - From /home/xprops/irrs/lib/python3.7/site-packages/tensorflow/python/ops/rnn_cell_impl.py:961: calling Zeros.__init__ (from tensorflow.python.ops.init_ops) with dtype is deprecated and will be removed in a future version.
Instructions for updating:
Call initializer instance with the dtype argument instead of passing it to the constructor
2019-08-14 09:27:04 - tensorflow - WARNING - deprecation : 323 - From /home/xprops/irrs/lib/python3.7/site-packages/tensorflow/python/ops/rnn.py:244: add_dispatch_support.<locals>.wrapper (from tensorflow.python.ops.array_ops) is deprecated and will be removed in a future version.
Instructions for updating:
Use tf.where in 2.0, which has the same broadcast rule as np.where
2019-08-14 09:27:04 - tensorflow - WARNING - deprecation : 323 - From /home/xprops/irrs_sc/train/app/autoencoder.py:137: dense (from tensorflow.python.layers.core) is deprecated and will be removed in a future version.
Instructions for updating:
Use keras.layers.dense instead.
2019-08-14 09:27:05 - tensorflow - WARNING - deprecation_wrapper : 119 - From /home/xprops/irrs_sc/train/app/autoencoder.py:142: The name tf.nn.rnn_cell.LSTMStateTuple is deprecated. Please use tf.compat.v1.nn.rnn_cell.LSTMStateTuple instead.

2019-08-14 09:27:05 - tensorflow - WARNING - deprecation_wrapper : 119 - From /home/xprops/irrs_sc/train/app/autoencoder.py:174: The name tf.get_collection is deprecated. Please use tf.compat.v1.get_collection instead.

2019-08-14 09:27:05 - tensorflow - WARNING - deprecation_wrapper : 119 - From /home/xprops/irrs_sc/train/app/autoencoder.py:174: The name tf.GraphKeys is deprecated. Please use tf.compat.v1.GraphKeys instead.

2019-08-14 09:27:05 - tensorflow - WARNING - deprecation_wrapper : 119 - From /home/xprops/irrs_sc/train/app/autoencoder.py:200: The name tf.train.AdamOptimizer is deprecated. Please use tf.compat.v1.train.AdamOptimizer instead.

2019-08-14 09:27:07 - root - INFO - app : 166 - Initialized the model and all variables. Starting training.
2019-08-14 09:27:07 - tensorflow - WARNING - deprecation_wrapper : 119 - From /home/xprops/irrs_sc/train/app/autoencoder.py:230: The name tf.train.Saver is deprecated. Please use tf.compat.v1.train.Saver instead.

2019-08-14 09:33:04 - summarizer.preprocessing.cleaner - INFO - textcleaner : 37 - 'pattern' package not found; tag filters are not available for English
2019-08-14 09:33:04 - __main__ - INFO - app : 46 - number of epochs =  1
2019-08-14 09:33:04 - tensorflow - WARNING - deprecation_wrapper : 119 - From app/app.py:147: The name tf.Session is deprecated. Please use tf.compat.v1.Session instead.

2019-08-14 09:33:04 - root - INFO - app : 152 - Reading training data
2019-08-14 09:33:05 - root - INFO - app : 154 - Reading validation data
2019-08-14 09:33:05 - root - INFO - app : 156 - Creating model
2019-08-14 09:33:05 - tensorflow - WARNING - deprecation_wrapper : 119 - From /home/xprops/irrs_sc/train/app/autoencoder.py:42: The name tf.placeholder is deprecated. Please use tf.compat.v1.placeholder instead.

2019-08-14 09:33:05 - tensorflow - WARNING - deprecation_wrapper : 119 - From /home/xprops/irrs_sc/train/app/autoencoder.py:67: The name tf.variable_scope is deprecated. Please use tf.compat.v1.variable_scope instead.

2019-08-14 09:33:05 - tensorflow - WARNING - deprecation : 506 - From /home/xprops/irrs/lib/python3.7/site-packages/tensorflow/python/ops/init_ops.py:1288: calling VarianceScaling.__init__ (from tensorflow.python.ops.init_ops) with dtype is deprecated and will be removed in a future version.
Instructions for updating:
Call initializer instance with the dtype argument instead of passing it to the constructor
2019-08-14 09:33:05 - tensorflow - WARNING - deprecation : 323 - From /home/xprops/irrs_sc/train/app/autoencoder.py:73: LSTMCell.__init__ (from tensorflow.python.ops.rnn_cell_impl) is deprecated and will be removed in a future version.
Instructions for updating:
This class is equivalent as tf.keras.layers.LSTMCell, and will be replaced by that in Tensorflow 2.0.
2019-08-14 09:33:05 - tensorflow - WARNING - deprecation : 506 - From /home/xprops/irrs_sc/train/app/autoencoder.py:78: calling dropout (from tensorflow.python.ops.nn_ops) with keep_prob is deprecated and will be removed in a future version.
Instructions for updating:
Please use `rate` instead of `keep_prob`. Rate should be set to `rate = 1 - keep_prob`.
2019-08-14 09:33:05 - tensorflow - WARNING - deprecation : 323 - From /home/xprops/irrs_sc/train/app/autoencoder.py:86: bidirectional_dynamic_rnn (from tensorflow.python.ops.rnn) is deprecated and will be removed in a future version.
Instructions for updating:
Please use `keras.layers.Bidirectional(keras.layers.RNN(cell))`, which is equivalent to this API
2019-08-14 09:33:05 - tensorflow - WARNING - deprecation : 323 - From /home/xprops/irrs/lib/python3.7/site-packages/tensorflow/python/ops/rnn.py:464: dynamic_rnn (from tensorflow.python.ops.rnn) is deprecated and will be removed in a future version.
Instructions for updating:
Please use `keras.layers.RNN(cell)`, which is equivalent to this API
2019-08-14 09:33:05 - tensorflow - WARNING - deprecation : 506 - From /home/xprops/irrs/lib/python3.7/site-packages/tensorflow/python/ops/rnn_cell_impl.py:961: calling Zeros.__init__ (from tensorflow.python.ops.init_ops) with dtype is deprecated and will be removed in a future version.
Instructions for updating:
Call initializer instance with the dtype argument instead of passing it to the constructor
2019-08-14 09:33:06 - tensorflow - WARNING - deprecation : 323 - From /home/xprops/irrs/lib/python3.7/site-packages/tensorflow/python/ops/rnn.py:244: add_dispatch_support.<locals>.wrapper (from tensorflow.python.ops.array_ops) is deprecated and will be removed in a future version.
Instructions for updating:
Use tf.where in 2.0, which has the same broadcast rule as np.where
2019-08-14 09:33:06 - tensorflow - WARNING - deprecation : 323 - From /home/xprops/irrs_sc/train/app/autoencoder.py:137: dense (from tensorflow.python.layers.core) is deprecated and will be removed in a future version.
Instructions for updating:
Use keras.layers.dense instead.
2019-08-14 09:33:06 - tensorflow - WARNING - deprecation_wrapper : 119 - From /home/xprops/irrs_sc/train/app/autoencoder.py:142: The name tf.nn.rnn_cell.LSTMStateTuple is deprecated. Please use tf.compat.v1.nn.rnn_cell.LSTMStateTuple instead.

2019-08-14 09:33:06 - tensorflow - WARNING - deprecation_wrapper : 119 - From /home/xprops/irrs_sc/train/app/autoencoder.py:174: The name tf.get_collection is deprecated. Please use tf.compat.v1.get_collection instead.

2019-08-14 09:33:06 - tensorflow - WARNING - deprecation_wrapper : 119 - From /home/xprops/irrs_sc/train/app/autoencoder.py:174: The name tf.GraphKeys is deprecated. Please use tf.compat.v1.GraphKeys instead.

2019-08-14 09:33:07 - tensorflow - WARNING - deprecation_wrapper : 119 - From /home/xprops/irrs_sc/train/app/autoencoder.py:200: The name tf.train.AdamOptimizer is deprecated. Please use tf.compat.v1.train.AdamOptimizer instead.

2019-08-14 09:33:08 - root - INFO - app : 166 - Initialized the model and all variables. Starting training.
2019-08-14 09:33:08 - tensorflow - WARNING - deprecation_wrapper : 119 - From /home/xprops/irrs_sc/train/app/autoencoder.py:230: The name tf.train.Saver is deprecated. Please use tf.compat.v1.train.Saver instead.

2019-08-14 10:32:02 - summarizer.preprocessing.cleaner - INFO - textcleaner : 37 - 'pattern' package not found; tag filters are not available for English
2019-08-14 10:32:02 - __main__ - INFO - app : 46 - number of epochs =  100
2019-08-14 10:32:02 - tensorflow - WARNING - deprecation_wrapper : 119 - From app/app.py:147: The name tf.Session is deprecated. Please use tf.compat.v1.Session instead.

2019-08-14 10:32:02 - root - INFO - app : 152 - Reading training data
2019-08-14 10:32:02 - root - INFO - app : 154 - Reading validation data
2019-08-14 10:32:02 - root - INFO - app : 156 - Creating model
2019-08-14 10:32:02 - tensorflow - WARNING - deprecation_wrapper : 119 - From /home/xprops/irrs_sc/train/app/autoencoder.py:42: The name tf.placeholder is deprecated. Please use tf.compat.v1.placeholder instead.

2019-08-14 10:32:02 - tensorflow - WARNING - deprecation_wrapper : 119 - From /home/xprops/irrs_sc/train/app/autoencoder.py:67: The name tf.variable_scope is deprecated. Please use tf.compat.v1.variable_scope instead.

2019-08-14 10:32:02 - tensorflow - WARNING - deprecation : 506 - From /home/xprops/irrs/lib/python3.7/site-packages/tensorflow/python/ops/init_ops.py:1288: calling VarianceScaling.__init__ (from tensorflow.python.ops.init_ops) with dtype is deprecated and will be removed in a future version.
Instructions for updating:
Call initializer instance with the dtype argument instead of passing it to the constructor
2019-08-14 10:32:02 - tensorflow - WARNING - deprecation : 323 - From /home/xprops/irrs_sc/train/app/autoencoder.py:73: LSTMCell.__init__ (from tensorflow.python.ops.rnn_cell_impl) is deprecated and will be removed in a future version.
Instructions for updating:
This class is equivalent as tf.keras.layers.LSTMCell, and will be replaced by that in Tensorflow 2.0.
2019-08-14 10:32:02 - tensorflow - WARNING - deprecation : 506 - From /home/xprops/irrs_sc/train/app/autoencoder.py:78: calling dropout (from tensorflow.python.ops.nn_ops) with keep_prob is deprecated and will be removed in a future version.
Instructions for updating:
Please use `rate` instead of `keep_prob`. Rate should be set to `rate = 1 - keep_prob`.
2019-08-14 10:32:02 - tensorflow - WARNING - deprecation : 323 - From /home/xprops/irrs_sc/train/app/autoencoder.py:86: bidirectional_dynamic_rnn (from tensorflow.python.ops.rnn) is deprecated and will be removed in a future version.
Instructions for updating:
Please use `keras.layers.Bidirectional(keras.layers.RNN(cell))`, which is equivalent to this API
2019-08-14 10:32:02 - tensorflow - WARNING - deprecation : 323 - From /home/xprops/irrs/lib/python3.7/site-packages/tensorflow/python/ops/rnn.py:464: dynamic_rnn (from tensorflow.python.ops.rnn) is deprecated and will be removed in a future version.
Instructions for updating:
Please use `keras.layers.RNN(cell)`, which is equivalent to this API
2019-08-14 10:32:02 - tensorflow - WARNING - deprecation : 506 - From /home/xprops/irrs/lib/python3.7/site-packages/tensorflow/python/ops/rnn_cell_impl.py:961: calling Zeros.__init__ (from tensorflow.python.ops.init_ops) with dtype is deprecated and will be removed in a future version.
Instructions for updating:
Call initializer instance with the dtype argument instead of passing it to the constructor
2019-08-14 10:32:03 - tensorflow - WARNING - deprecation : 323 - From /home/xprops/irrs/lib/python3.7/site-packages/tensorflow/python/ops/rnn.py:244: add_dispatch_support.<locals>.wrapper (from tensorflow.python.ops.array_ops) is deprecated and will be removed in a future version.
Instructions for updating:
Use tf.where in 2.0, which has the same broadcast rule as np.where
2019-08-14 10:32:03 - tensorflow - WARNING - deprecation : 323 - From /home/xprops/irrs_sc/train/app/autoencoder.py:137: dense (from tensorflow.python.layers.core) is deprecated and will be removed in a future version.
Instructions for updating:
Use keras.layers.dense instead.
2019-08-14 10:32:04 - tensorflow - WARNING - deprecation_wrapper : 119 - From /home/xprops/irrs_sc/train/app/autoencoder.py:142: The name tf.nn.rnn_cell.LSTMStateTuple is deprecated. Please use tf.compat.v1.nn.rnn_cell.LSTMStateTuple instead.

2019-08-14 10:32:04 - tensorflow - WARNING - deprecation_wrapper : 119 - From /home/xprops/irrs_sc/train/app/autoencoder.py:174: The name tf.get_collection is deprecated. Please use tf.compat.v1.get_collection instead.

2019-08-14 10:32:04 - tensorflow - WARNING - deprecation_wrapper : 119 - From /home/xprops/irrs_sc/train/app/autoencoder.py:174: The name tf.GraphKeys is deprecated. Please use tf.compat.v1.GraphKeys instead.

2019-08-14 10:32:04 - tensorflow - WARNING - deprecation_wrapper : 119 - From /home/xprops/irrs_sc/train/app/autoencoder.py:200: The name tf.train.AdamOptimizer is deprecated. Please use tf.compat.v1.train.AdamOptimizer instead.

2019-08-14 10:32:06 - root - INFO - app : 166 - Initialized the model and all variables. Starting training.
2019-08-14 10:32:06 - tensorflow - WARNING - deprecation_wrapper : 119 - From /home/xprops/irrs_sc/train/app/autoencoder.py:230: The name tf.train.Saver is deprecated. Please use tf.compat.v1.train.Saver instead.

2019-08-14 10:32:20 - root - INFO - autoencoder : 268 - Elapsed Time	 =	 13.894348
2019-08-14 10:32:24 - autoencoder - INFO - autoencoder : 292 - 1 epochs, 20 batches	Avg batch loss: 6.058784	Validation loss: 6.049542	(saved model)
2019-08-14 10:32:37 - root - INFO - autoencoder : 268 - Elapsed Time	 =	 31.171618
2019-08-14 10:52:27 - summarizer.preprocessing.cleaner - INFO - textcleaner : 37 - 'pattern' package not found; tag filters are not available for English
2019-08-14 10:52:27 - __main__ - INFO - app : 46 - number of epochs =  100
2019-08-14 10:52:27 - tensorflow - WARNING - deprecation_wrapper : 119 - From app/app.py:147: The name tf.Session is deprecated. Please use tf.compat.v1.Session instead.

2019-08-14 10:54:11 - summarizer.preprocessing.cleaner - INFO - textcleaner : 37 - 'pattern' package not found; tag filters are not available for English
2019-08-14 10:54:11 - __main__ - INFO - app : 46 - number of epochs =  100
2019-08-14 10:54:11 - tensorflow - WARNING - deprecation_wrapper : 119 - From app/app.py:147: The name tf.Session is deprecated. Please use tf.compat.v1.Session instead.

2019-08-14 10:54:11 - root - INFO - app : 152 - Reading training data
2019-08-14 10:54:26 - summarizer.preprocessing.cleaner - INFO - textcleaner : 37 - 'pattern' package not found; tag filters are not available for English
2019-08-14 10:54:26 - __main__ - INFO - app : 46 - number of epochs =  100
2019-08-14 10:54:26 - tensorflow - WARNING - deprecation_wrapper : 119 - From app/app.py:147: The name tf.Session is deprecated. Please use tf.compat.v1.Session instead.

2019-08-14 10:54:26 - root - INFO - app : 152 - Reading training data
2019-08-14 10:54:26 - root - INFO - app : 154 - Reading validation data
2019-08-14 10:54:26 - root - INFO - app : 156 - Creating model
2019-08-14 10:54:26 - tensorflow - WARNING - deprecation_wrapper : 119 - From /home/xprops/irrs_sc/train/app/autoencoder.py:42: The name tf.placeholder is deprecated. Please use tf.compat.v1.placeholder instead.

2019-08-14 10:54:26 - tensorflow - WARNING - deprecation_wrapper : 119 - From /home/xprops/irrs_sc/train/app/autoencoder.py:67: The name tf.variable_scope is deprecated. Please use tf.compat.v1.variable_scope instead.

2019-08-14 10:54:26 - tensorflow - WARNING - deprecation : 506 - From /home/xprops/irrs/lib/python3.7/site-packages/tensorflow/python/ops/init_ops.py:1288: calling VarianceScaling.__init__ (from tensorflow.python.ops.init_ops) with dtype is deprecated and will be removed in a future version.
Instructions for updating:
Call initializer instance with the dtype argument instead of passing it to the constructor
2019-08-14 10:54:26 - tensorflow - WARNING - deprecation : 323 - From /home/xprops/irrs_sc/train/app/autoencoder.py:73: LSTMCell.__init__ (from tensorflow.python.ops.rnn_cell_impl) is deprecated and will be removed in a future version.
Instructions for updating:
This class is equivalent as tf.keras.layers.LSTMCell, and will be replaced by that in Tensorflow 2.0.
2019-08-14 10:54:26 - tensorflow - WARNING - deprecation : 506 - From /home/xprops/irrs_sc/train/app/autoencoder.py:78: calling dropout (from tensorflow.python.ops.nn_ops) with keep_prob is deprecated and will be removed in a future version.
Instructions for updating:
Please use `rate` instead of `keep_prob`. Rate should be set to `rate = 1 - keep_prob`.
2019-08-14 10:54:26 - tensorflow - WARNING - deprecation : 323 - From /home/xprops/irrs_sc/train/app/autoencoder.py:86: bidirectional_dynamic_rnn (from tensorflow.python.ops.rnn) is deprecated and will be removed in a future version.
Instructions for updating:
Please use `keras.layers.Bidirectional(keras.layers.RNN(cell))`, which is equivalent to this API
2019-08-14 10:54:26 - tensorflow - WARNING - deprecation : 323 - From /home/xprops/irrs/lib/python3.7/site-packages/tensorflow/python/ops/rnn.py:464: dynamic_rnn (from tensorflow.python.ops.rnn) is deprecated and will be removed in a future version.
Instructions for updating:
Please use `keras.layers.RNN(cell)`, which is equivalent to this API
2019-08-14 10:54:26 - tensorflow - WARNING - deprecation : 506 - From /home/xprops/irrs/lib/python3.7/site-packages/tensorflow/python/ops/rnn_cell_impl.py:961: calling Zeros.__init__ (from tensorflow.python.ops.init_ops) with dtype is deprecated and will be removed in a future version.
Instructions for updating:
Call initializer instance with the dtype argument instead of passing it to the constructor
2019-08-14 10:54:27 - tensorflow - WARNING - deprecation : 323 - From /home/xprops/irrs/lib/python3.7/site-packages/tensorflow/python/ops/rnn.py:244: add_dispatch_support.<locals>.wrapper (from tensorflow.python.ops.array_ops) is deprecated and will be removed in a future version.
Instructions for updating:
Use tf.where in 2.0, which has the same broadcast rule as np.where
2019-08-14 10:54:27 - tensorflow - WARNING - deprecation : 323 - From /home/xprops/irrs_sc/train/app/autoencoder.py:137: dense (from tensorflow.python.layers.core) is deprecated and will be removed in a future version.
Instructions for updating:
Use keras.layers.dense instead.
2019-08-14 10:54:28 - tensorflow - WARNING - deprecation_wrapper : 119 - From /home/xprops/irrs_sc/train/app/autoencoder.py:142: The name tf.nn.rnn_cell.LSTMStateTuple is deprecated. Please use tf.compat.v1.nn.rnn_cell.LSTMStateTuple instead.

2019-08-14 10:54:28 - tensorflow - WARNING - deprecation_wrapper : 119 - From /home/xprops/irrs_sc/train/app/autoencoder.py:174: The name tf.get_collection is deprecated. Please use tf.compat.v1.get_collection instead.

2019-08-14 10:54:28 - tensorflow - WARNING - deprecation_wrapper : 119 - From /home/xprops/irrs_sc/train/app/autoencoder.py:174: The name tf.GraphKeys is deprecated. Please use tf.compat.v1.GraphKeys instead.

2019-08-14 10:54:28 - tensorflow - WARNING - deprecation_wrapper : 119 - From /home/xprops/irrs_sc/train/app/autoencoder.py:200: The name tf.train.AdamOptimizer is deprecated. Please use tf.compat.v1.train.AdamOptimizer instead.

2019-08-14 10:54:30 - root - INFO - app : 166 - Initialized the model and all variables. Starting training.
2019-08-14 10:54:30 - tensorflow - WARNING - deprecation_wrapper : 119 - From /home/xprops/irrs_sc/train/app/autoencoder.py:230: The name tf.train.Saver is deprecated. Please use tf.compat.v1.train.Saver instead.

2019-08-14 10:54:43 - root - INFO - autoencoder : 268 - Elapsed Time	 =	 13.623446
2019-08-14 10:54:48 - autoencoder - INFO - autoencoder : 292 - 1 epochs, 20 batches	Avg batch loss: 6.046296	Validation loss: 5.599353	(saved model)
2019-08-14 10:57:17 - summarizer.preprocessing.cleaner - INFO - textcleaner : 37 - 'pattern' package not found; tag filters are not available for English
2019-08-14 10:57:18 - __main__ - INFO - app : 46 - number of epochs =  100
2019-08-14 10:57:18 - tensorflow - WARNING - deprecation_wrapper : 119 - From app/app.py:147: The name tf.Session is deprecated. Please use tf.compat.v1.Session instead.

2019-08-14 10:57:18 - root - INFO - app : 152 - Reading training data
2019-08-14 10:57:18 - root - INFO - app : 154 - Reading validation data
2019-08-14 10:57:18 - root - INFO - app : 156 - Creating model
2019-08-14 10:57:18 - tensorflow - WARNING - deprecation_wrapper : 119 - From /home/xprops/irrs_sc/train/app/autoencoder.py:42: The name tf.placeholder is deprecated. Please use tf.compat.v1.placeholder instead.

2019-08-14 10:57:18 - tensorflow - WARNING - deprecation_wrapper : 119 - From /home/xprops/irrs_sc/train/app/autoencoder.py:67: The name tf.variable_scope is deprecated. Please use tf.compat.v1.variable_scope instead.

2019-08-14 10:57:18 - tensorflow - WARNING - deprecation : 506 - From /home/xprops/irrs/lib/python3.7/site-packages/tensorflow/python/ops/init_ops.py:1288: calling VarianceScaling.__init__ (from tensorflow.python.ops.init_ops) with dtype is deprecated and will be removed in a future version.
Instructions for updating:
Call initializer instance with the dtype argument instead of passing it to the constructor
2019-08-14 10:57:18 - tensorflow - WARNING - deprecation : 323 - From /home/xprops/irrs_sc/train/app/autoencoder.py:73: LSTMCell.__init__ (from tensorflow.python.ops.rnn_cell_impl) is deprecated and will be removed in a future version.
Instructions for updating:
This class is equivalent as tf.keras.layers.LSTMCell, and will be replaced by that in Tensorflow 2.0.
2019-08-14 10:57:18 - tensorflow - WARNING - deprecation : 506 - From /home/xprops/irrs_sc/train/app/autoencoder.py:78: calling dropout (from tensorflow.python.ops.nn_ops) with keep_prob is deprecated and will be removed in a future version.
Instructions for updating:
Please use `rate` instead of `keep_prob`. Rate should be set to `rate = 1 - keep_prob`.
2019-08-14 10:57:18 - tensorflow - WARNING - deprecation : 323 - From /home/xprops/irrs_sc/train/app/autoencoder.py:86: bidirectional_dynamic_rnn (from tensorflow.python.ops.rnn) is deprecated and will be removed in a future version.
Instructions for updating:
Please use `keras.layers.Bidirectional(keras.layers.RNN(cell))`, which is equivalent to this API
2019-08-14 10:57:18 - tensorflow - WARNING - deprecation : 323 - From /home/xprops/irrs/lib/python3.7/site-packages/tensorflow/python/ops/rnn.py:464: dynamic_rnn (from tensorflow.python.ops.rnn) is deprecated and will be removed in a future version.
Instructions for updating:
Please use `keras.layers.RNN(cell)`, which is equivalent to this API
2019-08-14 10:57:18 - tensorflow - WARNING - deprecation : 506 - From /home/xprops/irrs/lib/python3.7/site-packages/tensorflow/python/ops/rnn_cell_impl.py:961: calling Zeros.__init__ (from tensorflow.python.ops.init_ops) with dtype is deprecated and will be removed in a future version.
Instructions for updating:
Call initializer instance with the dtype argument instead of passing it to the constructor
2019-08-14 10:57:19 - tensorflow - WARNING - deprecation : 323 - From /home/xprops/irrs/lib/python3.7/site-packages/tensorflow/python/ops/rnn.py:244: add_dispatch_support.<locals>.wrapper (from tensorflow.python.ops.array_ops) is deprecated and will be removed in a future version.
Instructions for updating:
Use tf.where in 2.0, which has the same broadcast rule as np.where
2019-08-14 10:57:19 - tensorflow - WARNING - deprecation : 323 - From /home/xprops/irrs_sc/train/app/autoencoder.py:137: dense (from tensorflow.python.layers.core) is deprecated and will be removed in a future version.
Instructions for updating:
Use keras.layers.dense instead.
2019-08-14 10:57:19 - tensorflow - WARNING - deprecation_wrapper : 119 - From /home/xprops/irrs_sc/train/app/autoencoder.py:142: The name tf.nn.rnn_cell.LSTMStateTuple is deprecated. Please use tf.compat.v1.nn.rnn_cell.LSTMStateTuple instead.

2019-08-14 10:57:19 - tensorflow - WARNING - deprecation_wrapper : 119 - From /home/xprops/irrs_sc/train/app/autoencoder.py:174: The name tf.get_collection is deprecated. Please use tf.compat.v1.get_collection instead.

2019-08-14 10:57:19 - tensorflow - WARNING - deprecation_wrapper : 119 - From /home/xprops/irrs_sc/train/app/autoencoder.py:174: The name tf.GraphKeys is deprecated. Please use tf.compat.v1.GraphKeys instead.

2019-08-14 10:57:20 - tensorflow - WARNING - deprecation_wrapper : 119 - From /home/xprops/irrs_sc/train/app/autoencoder.py:200: The name tf.train.AdamOptimizer is deprecated. Please use tf.compat.v1.train.AdamOptimizer instead.

2019-08-14 10:57:21 - root - INFO - app : 166 - Initialized the model and all variables. Starting training.
2019-08-14 10:57:21 - tensorflow - WARNING - deprecation_wrapper : 119 - From /home/xprops/irrs_sc/train/app/autoencoder.py:230: The name tf.train.Saver is deprecated. Please use tf.compat.v1.train.Saver instead.

2019-08-14 10:57:36 - root - INFO - autoencoder : 268 - Elapsed Time	 =	 14.091039
2019-08-14 10:57:40 - autoencoder - INFO - autoencoder : 292 - 1 epochs, 20 batches	Avg batch loss: 6.022137	Validation loss: 5.483012	(saved model)
2019-08-14 10:57:54 - root - INFO - autoencoder : 268 - Elapsed Time	 =	 32.244485
2019-08-14 10:57:58 - autoencoder - INFO - autoencoder : 292 - 2 epochs, 40 batches	Avg batch loss: 4.721512	Validation loss: 4.434489	(saved model)
2019-08-14 10:58:11 - root - INFO - autoencoder : 268 - Elapsed Time	 =	 49.363851
2019-08-14 10:58:15 - autoencoder - INFO - autoencoder : 292 - 3 epochs, 60 batches	Avg batch loss: 3.742847	Validation loss: 4.264330	(saved model)
2019-08-14 10:58:28 - root - INFO - autoencoder : 268 - Elapsed Time	 =	 66.448647
2019-08-14 10:58:32 - autoencoder - INFO - autoencoder : 292 - 4 epochs, 80 batches	Avg batch loss: 3.485355	Validation loss: 3.551092	(saved model)
2019-08-14 10:58:45 - root - INFO - autoencoder : 268 - Elapsed Time	 =	 83.697916
2019-08-14 10:58:48 - autoencoder - INFO - autoencoder : 292 - 5 epochs, 100 batches	Avg batch loss: 3.167181	Validation loss: 3.629733
2019-08-14 10:59:01 - root - INFO - autoencoder : 268 - Elapsed Time	 =	 99.638616
2019-08-14 10:59:06 - autoencoder - INFO - autoencoder : 292 - 7 epochs, 120 batches	Avg batch loss: 2.926551	Validation loss: 3.391634	(saved model)
2019-08-14 10:59:18 - root - INFO - autoencoder : 268 - Elapsed Time	 =	 116.958763
2019-08-14 10:59:23 - autoencoder - INFO - autoencoder : 292 - 8 epochs, 140 batches	Avg batch loss: 2.819508	Validation loss: 3.605663
2019-08-14 10:59:36 - root - INFO - autoencoder : 268 - Elapsed Time	 =	 134.027337
2019-08-14 10:59:40 - autoencoder - INFO - autoencoder : 292 - 9 epochs, 160 batches	Avg batch loss: 2.709069	Validation loss: 3.213890	(saved model)
2019-08-14 10:59:52 - root - INFO - autoencoder : 268 - Elapsed Time	 =	 150.753722
2019-08-14 10:59:57 - autoencoder - INFO - autoencoder : 292 - 10 epochs, 180 batches	Avg batch loss: 2.582640	Validation loss: 3.088586	(saved model)
2019-08-14 11:00:10 - root - INFO - autoencoder : 268 - Elapsed Time	 =	 168.147400
2019-08-14 11:00:14 - autoencoder - INFO - autoencoder : 292 - 11 epochs, 200 batches	Avg batch loss: 2.657326	Validation loss: 2.928032	(saved model)
2019-08-14 11:00:28 - root - INFO - autoencoder : 268 - Elapsed Time	 =	 186.503944
2019-08-14 11:00:32 - autoencoder - INFO - autoencoder : 292 - 12 epochs, 220 batches	Avg batch loss: 2.523887	Validation loss: 3.089765
2019-08-14 11:00:45 - root - INFO - autoencoder : 268 - Elapsed Time	 =	 203.398542
2019-08-14 11:00:49 - autoencoder - INFO - autoencoder : 292 - 14 epochs, 240 batches	Avg batch loss: 2.486459	Validation loss: 3.553363
2019-08-14 11:01:02 - root - INFO - autoencoder : 268 - Elapsed Time	 =	 220.294466
2019-08-14 11:01:06 - autoencoder - INFO - autoencoder : 292 - 15 epochs, 260 batches	Avg batch loss: 2.482408	Validation loss: 3.142781
2019-08-14 11:01:19 - root - INFO - autoencoder : 268 - Elapsed Time	 =	 237.344828
2019-08-14 11:01:23 - autoencoder - INFO - autoencoder : 292 - 16 epochs, 280 batches	Avg batch loss: 2.405357	Validation loss: 3.137747
2019-08-14 11:01:35 - root - INFO - autoencoder : 268 - Elapsed Time	 =	 253.984306
2019-08-14 11:01:40 - autoencoder - INFO - autoencoder : 292 - 17 epochs, 300 batches	Avg batch loss: 2.371111	Validation loss: 2.993809
2019-08-14 11:01:53 - root - INFO - autoencoder : 268 - Elapsed Time	 =	 271.844247
2019-08-14 11:01:58 - autoencoder - INFO - autoencoder : 292 - 18 epochs, 320 batches	Avg batch loss: 2.405385	Validation loss: 3.031170
2019-08-14 11:02:11 - root - INFO - autoencoder : 268 - Elapsed Time	 =	 289.077216
2019-08-14 11:02:15 - autoencoder - INFO - autoencoder : 292 - 19 epochs, 340 batches	Avg batch loss: 2.316060	Validation loss: 2.945345
2019-08-14 11:02:28 - root - INFO - autoencoder : 268 - Elapsed Time	 =	 306.416561
2019-08-14 11:02:32 - autoencoder - INFO - autoencoder : 292 - 21 epochs, 360 batches	Avg batch loss: 2.222831	Validation loss: 2.996289
2019-08-14 11:02:45 - root - INFO - autoencoder : 268 - Elapsed Time	 =	 323.495686
2019-08-14 11:02:50 - autoencoder - INFO - autoencoder : 292 - 22 epochs, 380 batches	Avg batch loss: 2.211619	Validation loss: 2.885005	(saved model)
2019-08-14 11:03:02 - root - INFO - autoencoder : 268 - Elapsed Time	 =	 340.638908
2019-08-14 11:03:07 - autoencoder - INFO - autoencoder : 292 - 23 epochs, 400 batches	Avg batch loss: 2.173321	Validation loss: 2.798154	(saved model)
2019-08-14 11:03:19 - root - INFO - autoencoder : 268 - Elapsed Time	 =	 358.006258
2019-08-14 11:03:24 - autoencoder - INFO - autoencoder : 292 - 24 epochs, 420 batches	Avg batch loss: 2.119237	Validation loss: 2.872511
2019-08-14 11:03:37 - root - INFO - autoencoder : 268 - Elapsed Time	 =	 375.713519
2019-08-14 11:03:41 - autoencoder - INFO - autoencoder : 292 - 25 epochs, 440 batches	Avg batch loss: 2.136213	Validation loss: 2.795400	(saved model)
2019-08-14 11:03:53 - root - INFO - autoencoder : 268 - Elapsed Time	 =	 391.846387
2019-08-14 11:03:57 - autoencoder - INFO - autoencoder : 292 - 27 epochs, 460 batches	Avg batch loss: 2.070514	Validation loss: 2.804268
2019-08-14 11:04:10 - root - INFO - autoencoder : 268 - Elapsed Time	 =	 408.196050
2019-08-14 11:04:14 - autoencoder - INFO - autoencoder : 292 - 28 epochs, 480 batches	Avg batch loss: 2.025526	Validation loss: 2.743814	(saved model)
